// This file is create to contain most north American diesel electric locomotive characteristics
// The structure is:  
// KEY WORD followed by ":" then value. 
// Key Words are case sensitive (upper case only)
// Comment lines do not need any special initial character, but "//" is recommended
// "//" comment is allowed after value
//
// by: Eric Vaillancourt
// First version: Dec 2007
//
// General loco characteristics
LOCO_TYPE_NAME:						SD70MAC
TRACTION_TYPE:						AC
DATA_UNIT_POWER:					HP
DATA_UNIT_SPEED:					MPH
DATA_UNIT_TE:						LB
DATA_UNIT_WEIGHTMASS:					LB

// Note: Based on above Units, all data is converted to international units upon input, except
// the speeds in the TE_PER_NOTCH_VS_SPEED array, which needs to be an integer and is maintained as an index into that array.
NOMINAL_HP:						4000		//
MAX_SPEED:						75
GROSS_WEIGHT:						415000		// 368,000LBS @  0.45359237 kilogram / LB

NORMAL_BRAKE_SHOE_FORCE_@_50_PSI:			124500 // lbs because using TE units   ???

// Cab Controls
MAX_THROTTLE_POSITION:					8		//Normal 8 notches.Max 20 for "continuous" type throttle
MAX_DB_POSITION:					8		//Normal 8 notches.Max 20 for "continuous" type throttle

// Traction System
ENGINE_LOW_RPM:						315		// Idle               ???
ENGINE_HIGH_RPM:					900		// Notch 8             ???
RPM_INCREASE_RATE:					200		// RPM / sec  Default 200
RPM_DECREASE_RATE:					100		// RPM / sec  Default 100

AXLES:							6
POWERED_AXLES:						6
TRANSITION_SPEED:					99
ADHESION_AT_STOP:                                       0.40		// (FRACTION)
SAND_VOLUME:                                            1132     	// (LITER)
SAND_CAPACITY:                                          1132     	// (LITER)

							// Just interpolated between Low and high; TODO: Find data
							// FIRST VALUE IS IDLE ???
RPM_PER_NOTCH:						315,388,461,534,607,680,754,827,900	
RPM_PER_DBNOTCH:					315,356,397,438,480,521,562,604,645   
// These RPM values are completely ficititious
						

							// From Michael's SD-40 script data
							// Idle,Notch1,Notch2,etc...Notch8
POWER_PER_NOTCH:					0,80,368,662,1029,1434,1977,2582,2961 
POWER_PER_DBNOTCH:					0,80,368,662,1029,1434,1977,2582,2961 
// These Power values are completely ficititious also, but that does not interfere with the TE calculations
//
IPS_PRESSURE_TRIGGER_LOW_PSI:  10			// Starts decreasing DB
IPS_PRESSURE_TRIGGER_HIGH_PSI:  15			// DB = 0


// First number is speed for this TE. ) speed is treated as 0.01 for calcs. For now, Speeds must go from 0 to 
// MaxSpeed In increments of 1. Unit for Speed is specified above with DATA_UNIT_SPEED
TE_PER_NOTCH_VS_SPEED:     0,15000,35000,55000,75000,100000,125000,150000,175500
TE_PER_NOTCH_VS_SPEED:     1,15000,35000,55000,75000,100000,125000,150000,175500
TE_PER_NOTCH_VS_SPEED:     2,15000,35000,55000,75000,100000,125000,150000,175500
TE_PER_NOTCH_VS_SPEED:     3,15000,35000,55000,75000,100000,125000,150000,175500
TE_PER_NOTCH_VS_SPEED:     4,14000,31000,55000,75000,100000,125000,150000,175500
TE_PER_NOTCH_VS_SPEED:     5,11500,25500,55000,75000,100000,125000,150000,175500
TE_PER_NOTCH_VS_SPEED:     6,10000,21500,48000,67000,90000,125000,150000,175500
TE_PER_NOTCH_VS_SPEED:     7,8833,19250,43000,59800,80666,114500,144666,166250
TE_PER_NOTCH_VS_SPEED:     8,7667,17000,38000,52600,71333,104000,139333,157000
TE_PER_NOTCH_VS_SPEED:     9,6833,15000,34000,47200,63667,93000,128667,141000
TE_PER_NOTCH_VS_SPEED:     10,6000,13000,30000,41800,56000,82000,118000,125000
TE_PER_NOTCH_VS_SPEED:     11,5600,12200,28100,39140,52500,76800,109800,117400
TE_PER_NOTCH_VS_SPEED:     12,5200,11400,26200,36480,49000,71600,101600,109800
TE_PER_NOTCH_VS_SPEED:     13,4800,10600,24300,33820,45500,66400,93400,102200
TE_PER_NOTCH_VS_SPEED:     14,4400,9800,22400,31160,42000,61200,85200,94600
TE_PER_NOTCH_VS_SPEED:     15,4000,9000,20500,28500,38500,56000,77000,87000
TE_PER_NOTCH_VS_SPEED:     16,3800,8800,19560,27200,36700,53400,73360,82800
TE_PER_NOTCH_VS_SPEED:     17,3600,8600,18620,25900,34900,50800,69720,78600
TE_PER_NOTCH_VS_SPEED:     18,3400,8400,17680,24600,33100,48200,66080,74400
TE_PER_NOTCH_VS_SPEED:     19,3200,8200,16740,23300,31300,45600,62440,70200
TE_PER_NOTCH_VS_SPEED:     20,3000,8000,15800,22000,29500,43000,58800,66000
TE_PER_NOTCH_VS_SPEED:     21,2900,7500,15220,21100,28400,41400,56440,63600
TE_PER_NOTCH_VS_SPEED:     22,2800,7000,14640,20200,27300,39800,54080,61200
TE_PER_NOTCH_VS_SPEED:     23,2700,6500,14060,19300,26200,38200,51720,58800
TE_PER_NOTCH_VS_SPEED:     24,2600,6000,13480,18400,25100,36600,49360,56400
TE_PER_NOTCH_VS_SPEED:     25,2500,5500,12900,17500,24000,35000,47000,54000
TE_PER_NOTCH_VS_SPEED:     26,2400,5360,12500,16980,23200,33900,45600,52200
TE_PER_NOTCH_VS_SPEED:     27,2300,5220,12100,16460,22400,32800,44200,50400
TE_PER_NOTCH_VS_SPEED:     28,2200,5080,11700,15940,21600,31700,42800,48600
TE_PER_NOTCH_VS_SPEED:     29,2100,4940,11300,15420,20800,30600,41400,46800
TE_PER_NOTCH_VS_SPEED:     30,2000,4800,10900,14900,20000,29500,40000,45000
TE_PER_NOTCH_VS_SPEED:     31,1980,4640,10520,14500,19440,28600,38800,43700
TE_PER_NOTCH_VS_SPEED:     32,1960,4480,10140,14100,18880,27700,37600,42400
TE_PER_NOTCH_VS_SPEED:     33,1940,4320,9760,13700,18320,26800,36400,41100
TE_PER_NOTCH_VS_SPEED:     34,1920,4160,9380,13300,17760,25900,35200,39800
TE_PER_NOTCH_VS_SPEED:     35,1900,4000,9000,12900,17200,25000,34000,38500
TE_PER_NOTCH_VS_SPEED:     36,1820,3900,8800,12520,16760,24400,33160,37560
TE_PER_NOTCH_VS_SPEED:     37,1740,3800,8600,12140,16320,23800,32320,36620
TE_PER_NOTCH_VS_SPEED:     38,1660,3700,8400,11760,15880,23200,31480,35680
TE_PER_NOTCH_VS_SPEED:     39,1580,3600,8200,11380,15440,22600,30640,34740
TE_PER_NOTCH_VS_SPEED:     40,1500,3500,8000,11000,15000,22000,29800,33800
TE_PER_NOTCH_VS_SPEED:     41,1440,3400,7800,10800,14640,21500,29140,33040
TE_PER_NOTCH_VS_SPEED:     42,1380,3300,7600,10600,14280,21000,28480,32280
TE_PER_NOTCH_VS_SPEED:     43,1320,3200,7400,10400,13920,20500,27820,31520
TE_PER_NOTCH_VS_SPEED:     44,1260,3100,7200,10200,13560,20000,27160,30760
TE_PER_NOTCH_VS_SPEED:     45,1200,3000,7000,10000,13200,19500,26500,30000
TE_PER_NOTCH_VS_SPEED:     46,1180,2960,6820,9780,12960,19100,25960,29400
TE_PER_NOTCH_VS_SPEED:     47,1160,2920,6640,9560,12720,18700,25420,28800
TE_PER_NOTCH_VS_SPEED:     48,1140,2880,6460,9340,12480,18300,24880,28200
TE_PER_NOTCH_VS_SPEED:     49,1120,2840,6280,9120,12240,17900,24340,27600
TE_PER_NOTCH_VS_SPEED:     50,1100,2800,6100,8900,12000,17500,23800,27000
TE_PER_NOTCH_VS_SPEED:     51,1080,2720,6060,8720,11760,17180,23280,26400
TE_PER_NOTCH_VS_SPEED:     52,1060,2640,6020,8540,11520,16860,22760,25800
TE_PER_NOTCH_VS_SPEED:     53,1040,2560,5980,8360,11280,16540,22240,25200
TE_PER_NOTCH_VS_SPEED:     54,1020,2480,5940,8180,11040,16220,21720,24600
TE_PER_NOTCH_VS_SPEED:     55,1000,2400,5900,8000,10800,15900,21200,24000
TE_PER_NOTCH_VS_SPEED:     56,980,2340,5720,7800,10640,15560,20860,23600
TE_PER_NOTCH_VS_SPEED:     57,960,2280,5540,7600,10480,15220,20520,23200
TE_PER_NOTCH_VS_SPEED:     58,940,2220,5360,7400,10320,14880,20180,22800
TE_PER_NOTCH_VS_SPEED:     59,920,2160,5180,7200,10160,14540,19840,22400
TE_PER_NOTCH_VS_SPEED:     60,900,2100,5000,7000,10000,14200,19500,22000
TE_PER_NOTCH_VS_SPEED:     61,900,2080,4980,6960,9800,13960,19200,21600
TE_PER_NOTCH_VS_SPEED:     62,900,2060,4960,6920,9600,13720,18900,21200
TE_PER_NOTCH_VS_SPEED:     63,900,2040,4940,6880,9400,13480,18600,20800
TE_PER_NOTCH_VS_SPEED:     64,900,2020,4920,6840,9200,13240,18300,20400
TE_PER_NOTCH_VS_SPEED:     65,900,2000,4900,6800,9000,13000,18000,20000
TE_PER_NOTCH_VS_SPEED:     66,900,1980,4740,6640,8840,12800,17700,19600
TE_PER_NOTCH_VS_SPEED:     67,900,1960,4580,6480,8680,12600,17400,19200
TE_PER_NOTCH_VS_SPEED:     68,900,1940,4420,6320,8520,12400,17100,18800
TE_PER_NOTCH_VS_SPEED:     69,900,1920,4260,6160,8360,12200,16800,18400
TE_PER_NOTCH_VS_SPEED:     70,900,1900,4100,6000,8200,12000,16500,18000



TE_PER_DBNOTCH_VS_SPEED:     0,0,0,0,0,0,0,0,0
TE_PER_DBNOTCH_VS_SPEED:     1,2800,13000,20000,20000,20000,20000,20000,20000
TE_PER_DBNOTCH_VS_SPEED:     2,2800,13000,27000,40000,40000,40000,40000,40000
TE_PER_DBNOTCH_VS_SPEED:     3,2800,13000,27000,41000,56500,60000,60000,60000
TE_PER_DBNOTCH_VS_SPEED:     4,2800,13000,27000,41000,56500,78000,80000,80000
TE_PER_DBNOTCH_VS_SPEED:     5,2800,13000,27000,41000,56500,78000,80167,80167
TE_PER_DBNOTCH_VS_SPEED:     6,2800,13000,27000,41000,56500,78000,80333,80333
TE_PER_DBNOTCH_VS_SPEED:     7,2800,13000,27000,41000,56500,78000,80500,80500
TE_PER_DBNOTCH_VS_SPEED:     8,2800,13000,27000,41000,56500,78000,80667,80667
TE_PER_DBNOTCH_VS_SPEED:     9,2800,13000,27000,41000,56500,78000,80833,80833
TE_PER_DBNOTCH_VS_SPEED:     10,2800,13000,27000,41000,56500,78000,81000,81000
TE_PER_DBNOTCH_VS_SPEED:     11,2800,13000,27000,41000,56500,78000,81000,81000
TE_PER_DBNOTCH_VS_SPEED:     12,2800,13000,27000,41000,56500,78000,81000,81000
TE_PER_DBNOTCH_VS_SPEED:     13,2800,13000,27000,41000,56500,78000,81000,81000
TE_PER_DBNOTCH_VS_SPEED:     14,2800,13000,27000,41000,56500,78000,81000,81000
TE_PER_DBNOTCH_VS_SPEED:     15,2800,13000,27000,41000,56500,78000,81000,81000
TE_PER_DBNOTCH_VS_SPEED:     16,2800,13000,27000,41000,56500,78000,81000,81000
TE_PER_DBNOTCH_VS_SPEED:     17,2800,13000,27000,41000,56500,78000,81000,81000
TE_PER_DBNOTCH_VS_SPEED:     18,2800,13000,27000,41000,56500,78000,81000,81000
TE_PER_DBNOTCH_VS_SPEED:     19,2800,13000,27000,41000,56500,78000,81000,81000
TE_PER_DBNOTCH_VS_SPEED:     20,2800,13000,27000,41000,56500,78000,81000,81000
TE_PER_DBNOTCH_VS_SPEED:     21,2760,12900,26800,40700,56000,75400,80300,80300
TE_PER_DBNOTCH_VS_SPEED:     22,2720,12800,26600,40400,55500,72800,79600,79600
TE_PER_DBNOTCH_VS_SPEED:     23,2680,12700,26400,40100,55000,70200,78900,78900
TE_PER_DBNOTCH_VS_SPEED:     24,2640,12600,26200,39800,54500,67600,78200,78200
TE_PER_DBNOTCH_VS_SPEED:     25,2600,12500,26000,39500,54000,65000,77500,77500
TE_PER_DBNOTCH_VS_SPEED:     26,2480,12340,25160,38200,52200,62900,74960,74960
TE_PER_DBNOTCH_VS_SPEED:     27,2360,12180,24320,36900,50400,60800,72420,72420
TE_PER_DBNOTCH_VS_SPEED:     28,2240,12020,23480,35600,48600,58700,69880,69880
TE_PER_DBNOTCH_VS_SPEED:     29,2120,11860,22640,34300,46800,56600,67340,67340
TE_PER_DBNOTCH_VS_SPEED:     30,2000,11700,21800,33000,45000,54500,64800,64800
TE_PER_DBNOTCH_VS_SPEED:     31,1980,11160,21200,32000,43700,52960,63040,63040
TE_PER_DBNOTCH_VS_SPEED:     32,1960,10620,20600,31000,42400,51420,61280,61280
TE_PER_DBNOTCH_VS_SPEED:     33,1940,10080,20000,30000,41100,49880,59520,59520
TE_PER_DBNOTCH_VS_SPEED:     34,1920,9540,19400,29000,39800,48340,57760,57760
TE_PER_DBNOTCH_VS_SPEED:     35,1900,9000,18800,28000,38500,46800,56000,56000
TE_PER_DBNOTCH_VS_SPEED:     36,1874,8800,18240,27360,37600,45640,54500,54500
TE_PER_DBNOTCH_VS_SPEED:     37,1848,8600,17680,26720,36700,44480,53000,53000
TE_PER_DBNOTCH_VS_SPEED:     38,1822,8400,17120,26080,35800,43320,51500,51500
TE_PER_DBNOTCH_VS_SPEED:     39,1796,8200,16560,25440,34900,42160,50000,50000
TE_PER_DBNOTCH_VS_SPEED:     40,1770,8000,16000,24800,34000,41000,48500,48500
TE_PER_DBNOTCH_VS_SPEED:     41,1744,7800,15680,24240,33200,40040,47400,47400
TE_PER_DBNOTCH_VS_SPEED:     42,1718,7600,15360,23680,32400,39080,46300,46300
TE_PER_DBNOTCH_VS_SPEED:     43,1692,7400,15040,23120,31600,38120,45200,45200
TE_PER_DBNOTCH_VS_SPEED:     44,1666,7200,14720,22560,30800,37160,44100,44100
TE_PER_DBNOTCH_VS_SPEED:     45,1640,7000,14400,22000,30000,36200,43000,43000
TE_PER_DBNOTCH_VS_SPEED:     46,1614,6800,14120,21600,29400,35520,42200,42200
TE_PER_DBNOTCH_VS_SPEED:     47,1588,6600,13840,21200,28800,34840,41400,41400
TE_PER_DBNOTCH_VS_SPEED:     48,1562,6400,13560,20800,28200,34160,40600,40600
TE_PER_DBNOTCH_VS_SPEED:     49,1536,6200,13280,20400,27600,33480,39800,39800
TE_PER_DBNOTCH_VS_SPEED:     50,1510,6000,13000,20000,27000,32800,39000,39000
TE_PER_DBNOTCH_VS_SPEED:     51,1486,5900,12800,19600,26560,32140,38300,38300
TE_PER_DBNOTCH_VS_SPEED:     52,1462,5800,12600,19200,26120,31480,37600,37600
TE_PER_DBNOTCH_VS_SPEED:     53,1438,5700,12400,18800,25680,30820,36900,36900
TE_PER_DBNOTCH_VS_SPEED:     54,1414,5600,12200,18400,25240,30160,36200,36200
TE_PER_DBNOTCH_VS_SPEED:     55,1390,5500,12000,18000,24800,29500,35500,35500
TE_PER_DBNOTCH_VS_SPEED:     56,1364,5400,11800,17700,24360,29000,34900,34900
TE_PER_DBNOTCH_VS_SPEED:     57,1338,5300,11600,17400,23920,28500,34300,34300
TE_PER_DBNOTCH_VS_SPEED:     58,1312,5200,11400,17100,23480,28000,33700,33700
TE_PER_DBNOTCH_VS_SPEED:     59,1286,5100,11200,16800,23040,27500,33100,33100
TE_PER_DBNOTCH_VS_SPEED:     60,1260,5000,11000,16500,22600,27000,32500,32500
TE_PER_DBNOTCH_VS_SPEED:     61,1234,4950,10800,16200,22280,26600,32000,32000
TE_PER_DBNOTCH_VS_SPEED:     62,1208,4900,10600,15900,21960,26200,31500,31500
TE_PER_DBNOTCH_VS_SPEED:     63,1182,4850,10400,15600,21640,25800,31000,31000
TE_PER_DBNOTCH_VS_SPEED:     64,1156,4800,10200,15300,21320,25400,30500,30500
TE_PER_DBNOTCH_VS_SPEED:     65,1130,4750,10000,15000,21000,25000,30000,30000
TE_PER_DBNOTCH_VS_SPEED:     66,1104,4700,9800,14800,20640,24700,29600,29600
TE_PER_DBNOTCH_VS_SPEED:     67,1078,4650,9600,14600,20280,24400,29200,29200
TE_PER_DBNOTCH_VS_SPEED:     68,1052,4600,9400,14400,19920,24100,28800,28800
TE_PER_DBNOTCH_VS_SPEED:     69,1026,4550,9200,14200,19560,23800,28400,28400
TE_PER_DBNOTCH_VS_SPEED:     70,1000,4500,9000,14000,19200,23500,28000,28000
 

MAX_DB_AMPS:  850
MAX_TE_AMPS: 1450


FUEL_LITER_PER_MINUTE_NOTCH_0:     0.196
FUEL_LITER_PER_MINUTE_NOTCH_1:     0.751
FUEL_LITER_PER_MINUTE_NOTCH_2:     1.432
FUEL_LITER_PER_MINUTE_NOTCH_3:     2.984
FUEL_LITER_PER_MINUTE_NOTCH_4:     4.057
FUEL_LITER_PER_MINUTE_NOTCH_5:     5.451
FUEL_LITER_PER_MINUTE_NOTCH_6:     8.391
FUEL_LITER_PER_MINUTE_NOTCH_7:     10.334
FUEL_LITER_PER_MINUTE_NOTCH_8:     11.810

FUEL_LITER_PER_MINUTE_DBNOTCH_0:     0.196
FUEL_LITER_PER_MINUTE_DBNOTCH_1:     0.259
FUEL_LITER_PER_MINUTE_DBNOTCH_2:     0.448
FUEL_LITER_PER_MINUTE_DBNOTCH_3:     0.637
FUEL_LITER_PER_MINUTE_DBNOTCH_4:     0.871
FUEL_LITER_PER_MINUTE_DBNOTCH_5:     1.173
FUEL_LITER_PER_MINUTE_DBNOTCH_6:     1.470
FUEL_LITER_PER_MINUTE_DBNOTCH_7:     1.470
FUEL_LITER_PER_MINUTE_DBNOTCH_8:     1.470



// ??? I don't know where to get these for AC4400
// I don't think I use them any more anyhow
FUEL_LITER_PER_MINUTE_DB_LOW:		3.72863				// Using notch 4 numbers for both; Check these
FUEL_LITER_PER_MINUTE_DB_HIGH:		3.72863
//
FUEL_TANK_CAP_LITERS:			18927				// 
FUEL_ON_BOARD:				18927				// Full tank

MAIN_GENERATOR_VOLTAGE:			600
	
//
// Cab Display
//
CAB_HAS_ANALOG_GAUGES: NO

//
// Air Brake System
// ALL  PRESSURES MUST BE INPUT IN PSIs
AIR_BRAKE_TYPE:				26L
COMPRESSOR_DRIVE_MODE:			DIRECT			// if direct, needs //COMPRESSOR_LITER_PER_MIN_PER_RPM, else needs MAX_COMPRESSOR_LITER_PER_MIN
//COMPRESSOR_LITER_PER_MIN_PER_RPM:	7.99164			// 0.28222 ft3 at 28.316 846 712 liters / ft3
COMPRESSOR_CUFT_PER_MIN_AT_MAX_RPM:	254			// 0.28222 ft3 at 28.316 846 712 liters / ft3 AC4400???
MAIN1_RESERVOIR_VOLUME_LITER:		469			// From PI's 26-L book 
MAIN2_RESERVOIR_VOLUME_LITER:		469			// From PI's 26-L book
MAIN1_RESERVOIR_INITIAL_PRESSURE:	120			// Could want to start at something else, especially if testing compressor failure
MAIN2_RESERVOIR_INITIAL_PRESSURE:	120			// Could want to start at something else, especially if testing compressor failure
MAIN_RES_SAFETY_HIGH_THRESH:		175			// These safety valve Presssures are all relative pressures
MAIN_RES_SAFETY_LOW_THRESH:		175			//
CompPressSw_HIGH_THRESH:		140			//
CompPressSw_LOW_THRESH:			130			//
//
BRAKE_VALVE_REG_VALVE_INITIAL_VALUE:		90		// Just the initial value. psis
DP_SETOUT_CUTS_OUT_BRAKE_VALVE:                 YES
EQUALIZING_RESERVOIR_VOLUME_LITER:		3.605		// 220 CU. IN.
EQUALIZING_RESERVOIR_INITIAL_PRESSURE:		90		// COuld want to start at something else, especially if testing compressor failure
J_RELAY_VALVE_TYPE:				J-1.6-16        // This means % of independant and % of auto control pipe pressures sent to 
								// loco brake cyinders as well as max pressure for ind., auto and emerg. brake app.
								// Possible types are: J1, J-1.6-16, J-200,J-84M, J64B

DP_SETOUT_APPLIES_INDEPENDENT:                  YES
MAX_INDEPENDANT_BRAKE_PRESSURE:			72		// Typical value (sometimes 50) for CN locos

UNEXPECTED_EMERGENCY_FULL_POWER: YES
IMMEDIATE_EQ_RES_DROP_IN_EMERGENCY: YES
EQ_RES_HOLDS_WHEN_CUT_OUT: NO
EQ_RES_ZERO_WHEN_HANDLE_OFF: YES
USE_DYNAMIC_BRAKE_INTERLOCK: YES

26-F_GRADUATED_RELEASE:				NO		// YES usually only for passenger trains
26-F_EMERGENCY_CYLINDER_PRESSURE_LIMIT:     	73		// Need to verify this		
26-F_SERVICE_CYLINDER_PRESSURE_LIMIT:       	60		// Need to verify this ( 32-62psi range)		
// Electrical System



//