// This file is create to contain most north American diesel electric locomotive characteristics
// The structure is:
// KEY WORD followed by ":" then value.
// Key Words are case sensitive (upper case only)
// Comment lines do not need any special initial character, but "//" is recommended
// "//" comment is allowed after value
//
// Original File: Eric Valliancourt (PI Eng.)
// SD70ACe Information: Darrell Krueger (RSI)
// First version: June 2008
//
// OPEN ISSUES:
// Loco brake force needs to be confirmed, currently using that for SD70MAC
// Adhesion needs to be confirmed. SD70MAC adhesion
// All Fuel consumption numbers need to be confirmed. Currently using SD70MAC numbers

// General loco characteristics
LOCO_TYPE_NAME:                     SD70ACe
TRACTION_TYPE:						AC
DATA_UNIT_POWER:                    HP
DATA_UNIT_SPEED:                    MPH
DATA_UNIT_TE:                       LB
DATA_UNIT_WEIGHTMASS:               LB

// Note: Based on above Units, all data is converted to international units upon input, except
// the speeds in the TE_PER_NOTCH_VS_SPEED array, which needs to be an integer and is maintained as an index into that array.
NOMINAL_HP:                         4300        //
MAX_SPEED:                          70
GROSS_WEIGHT:                       428000      //  From SD70ACe Operators Manual

NORMAL_BRAKE_SHOE_FORCE_@_50_PSI:   128400 // lbs because using TE units   ???

// Cab Controls
MAX_THROTTLE_POSITION:              8           //Normal 8 notches.Max 20 for "continuous" type throttle
MAX_DB_POSITION:                    8           //Normal 8 notches.Max 20 for "continuous" type throttle

// Traction System
ENGINE_LOW_RPM:                     269         // Idle (From SD70ACe Operators Manual)
ENGINE_HIGH_RPM:                    950         // Notch 8 (From SD70ACe Operators Manual
RPM_INCREASE_RATE:                  200         // RPM / sec  Default 200
RPM_DECREASE_RATE:                  100         // RPM / sec  Default 100

AXLES:                              6
POWERED_AXLES:                      6
TRANSITION_SPEED:                   99          // 99 mph b/c this is an AC loco
ADHESION_AT_STOP:                   0.40        // (FRACTION) Reused from SD70MAC NEED TO CHANGE
SAND_VOLUME:                        1132        // (LITER) (From SD70ACe Operators Manual)
SAND_CAPACITY:                      1132        // (LITER) (From SD70ACe Operators Manual)

                            // Just interpolated between Low and high; TODO: Find data
                            // FIRST VALUE IS IDLE ???
RPM_PER_NOTCH:                      269,354,439,524,609,695,780,864,950 // Interpolated
RPM_PER_DBNOTCH:                    315,356,397,438,480,521,562,604,645 // Data from SD70MAC
// These RPM values are completely ficititious

IPS_PRESSURE_TRIGGER_LOW_PSI:  10			// Starts decreasing DB
IPS_PRESSURE_TRIGGER_HIGH_PSI:  15			// DB = 0

                            // From Michael's SD-40 script data
                            // Idle,Notch1,Notch2,etc...Notch8
POWER_PER_NOTCH:                    0,80,368,662,1029,1434,1977,2582,2961
POWER_PER_DBNOTCH:                  0,80,368,662,1029,1434,1977,2582,2961
// These Power values are completely ficititious also, but that does not interfere with the TE calculations
//
TRACTION_CONTROL_ENABLED: 			TRUE // Prevents slippage by lowering power output
ALERTER_ENABLED_YES_NO: 			YES
ALERTER_VERYLOWSPEED_TIMEOUTDELAY_SECS: 	145 
ALERTER_LOWSPEED_TIMEOUTDELAY_SECS: 		85
ALERTER_HIGHSPEED_TIMEOUTDELAY1_SECS:		61
ALERTER_HIGHSPEED_TIMEOUTDELAY2_SECS:		35
ALERTER_VERYLOWSPEED:				3.4 //MPH
ALERTER_LOWSPEED:				40	//MPH
ALERTER_HIGHSPEED:				70	//MPH

// First number is speed for this TE. ) speed is treated as 0.01 for calcs. For now, Speeds must go from 0 to
// MaxSpeed In increments of 1. Unit for Speed is specified above with DATA_UNIT_SPEED
TE_PER_NOTCH_VS_SPEED:0,20979,41958,62937,83916,104895,136364,167832,188811
TE_PER_NOTCH_VS_SPEED:1,20979,41958,62937,83916,104732,136201,167832,188648
TE_PER_NOTCH_VS_SPEED:2,20979,41958,62937,83916,104569,136037,167832,188485
TE_PER_NOTCH_VS_SPEED:3,19406,41783,62937,83741,104557,136187,167832,188648
TE_PER_NOTCH_VS_SPEED:4,17832,41608,62937,83566,104545,136337,167832,188811
TE_PER_NOTCH_VS_SPEED:5,14835,35215,62587,83877,104545,136175,167832,188625
TE_PER_NOTCH_VS_SPEED:6,12587,30420,56893,78322,103077,136014,167832,188485
TE_PER_NOTCH_VS_SPEED:7,11189,27319,51103,70490,92797,132727,167832,188462
TE_PER_NOTCH_VS_SPEED:8,9790,24219,45455,62657,82518,121224,148864,176224
TE_PER_NOTCH_VS_SPEED:9,8691,21775,41037,56329,74476,109213,133673,159616
TE_PER_NOTCH_VS_SPEED:10,7592,19331,36620,50000,66434,97203,118482,143007
TE_PER_NOTCH_VS_SPEED:11,6943,17707,33741,45979,60664,89411,109066,131294
TE_PER_NOTCH_VS_SPEED:12,6294,16084,30863,41958,54895,81618,99650,119580
TE_PER_NOTCH_VS_SPEED:13,5944,14860,28543,39021,51049,75824,92308,110839
TE_PER_NOTCH_VS_SPEED:14,5594,13636,26224,36084,47203,70030,84965,102098
TE_PER_NOTCH_VS_SPEED:15,5070,12712,24550,33651,44406,65609,79895,95816
TE_PER_NOTCH_VS_SPEED:16,4545,11788,22877,31219,41608,61189,74825,89534
TE_PER_NOTCH_VS_SPEED:17,4196,11139,21578,29595,39336,57692,70804,85140
TE_PER_NOTCH_VS_SPEED:18,3846,10490,20280,27972,37063,54196,66783,80746
TE_PER_NOTCH_VS_SPEED:19,3520,10140,19231,26667,35268,51585,63520,76387
TE_PER_NOTCH_VS_SPEED:20,3193,9790,18182,25361,33473,48974,60256,72028
TE_PER_NOTCH_VS_SPEED:21,3170,9266,17483,24219,31684,46727,57401,68695
TE_PER_NOTCH_VS_SPEED:22,3147,8741,16783,23077,29895,44481,54546,65361
TE_PER_NOTCH_VS_SPEED:23,3122,8392,15874,21981,28696,42582,52148,62751
TE_PER_NOTCH_VS_SPEED:24,3097,8042,14965,20886,27498,40684,49750,60140
TE_PER_NOTCH_VS_SPEED:25,2772,7717,14510,20280,26686,39223,48127,57867
TE_PER_NOTCH_VS_SPEED:26,2448,7393,14056,19674,25874,37762,46504,55594
TE_PER_NOTCH_VS_SPEED:27,2448,7193,13372,18928,24895,36457,44755,53846
TE_PER_NOTCH_VS_SPEED:28,2448,6993,12687,18182,23916,35152,43007,52098
TE_PER_NOTCH_VS_SPEED:29,2435,6469,12463,17483,23097,34009,41696,50237
TE_PER_NOTCH_VS_SPEED:30,2423,5944,12238,16783,22278,32867,40385,48377
TE_PER_NOTCH_VS_SPEED:31,2260,5944,11713,16259,21628,31818,39248,46916
TE_PER_NOTCH_VS_SPEED:32,2098,5944,11189,15734,20979,30769,38112,45455
TE_PER_NOTCH_VS_SPEED:33,1935,5769,11014,15210,20326,29953,36888,44231
TE_PER_NOTCH_VS_SPEED:34,1772,5594,10839,14685,19674,29138,35664,43007
TE_PER_NOTCH_VS_SPEED:35,1747,5245,10477,14336,19103,28155,34715,41708
TE_PER_NOTCH_VS_SPEED:36,1723,4895,10115,13986,18532,27173,33766,40410
TE_PER_NOTCH_VS_SPEED:37,1561,4895,9953,13636,18182,26523,32792,39436
TE_PER_NOTCH_VS_SPEED:38,1399,4895,9790,13287,17832,25874,31818,38462
TE_PER_NOTCH_VS_SPEED:39,1399,4732,9464,13112,17483,25221,31294,37413
TE_PER_NOTCH_VS_SPEED:40,1399,4569,9138,12937,17133,24569,30769,36364
TE_PER_NOTCH_VS_SPEED:41,1561,4545,8939,12388,16571,24126,29848,35614
TE_PER_NOTCH_VS_SPEED:42,1723,4522,8741,11838,16009,23683,28928,34865
TE_PER_NOTCH_VS_SPEED:43,1548,4359,8555,11501,15510,23030,28275,34158
TE_PER_NOTCH_VS_SPEED:44,1374,4196,8368,11164,15010,22378,27622,33450
TE_PER_NOTCH_VS_SPEED:45,1211,4196,8217,11002,14848,21853,27135,32692
TE_PER_NOTCH_VS_SPEED:46,1049,4196,8065,10839,14685,21329,26648,31935
TE_PER_NOTCH_VS_SPEED:47,1212,4021,7879,10477,14336,20944,26086,31302
TE_PER_NOTCH_VS_SPEED:48,1375,3846,7692,10115,13986,20559,25525,30669
TE_PER_NOTCH_VS_SPEED:49,1212,3834,7343,9940,13786,20070,25000,29983
TE_PER_NOTCH_VS_SPEED:50,1049,3821,6993,9765,13586,19580,24476,29296
TE_PER_NOTCH_VS_SPEED:51,1049,3646,6993,9589,13248,19204,23951,28768
TE_PER_NOTCH_VS_SPEED:52,1049,3472,6993,9414,12910,18827,23427,28241
TE_PER_NOTCH_VS_SPEED:53,1049,3309,6993,9252,12736,18480,23054,27722
TE_PER_NOTCH_VS_SPEED:54,1049,3147,6993,9091,12562,18132,22681,27203
TE_PER_NOTCH_VS_SPEED:55,1049,3147,6818,9078,12377,17795,22354,26713
TE_PER_NOTCH_VS_SPEED:56,1049,3147,6643,9066,12191,17458,22028,26224
TE_PER_NOTCH_VS_SPEED:57,1049,3147,6456,8877,11865,17282,21504,25874
TE_PER_NOTCH_VS_SPEED:58,1049,3147,6269,8687,11539,17106,20979,25525
TE_PER_NOTCH_VS_SPEED:59,1049,3134,6106,8365,11514,16920,20629,25152
TE_PER_NOTCH_VS_SPEED:60,1049,3122,5944,8042,11489,16733,20280,24779
TE_PER_NOTCH_VS_SPEED:61,1049,2960,5932,8042,11151,16385,20105,24452
TE_PER_NOTCH_VS_SPEED:62,1049,2797,5919,8042,10814,16037,19930,24126
TE_PER_NOTCH_VS_SPEED:63,1049,2784,5744,8029,10638,15711,19580,23776
TE_PER_NOTCH_VS_SPEED:64,1049,2770,5569,8017,10463,15385,19231,23427
TE_PER_NOTCH_VS_SPEED:65,1049,2609,5407,7855,10301,15210,19019,23077
TE_PER_NOTCH_VS_SPEED:66,1049,2448,5245,7692,10140,15035,18806,22727
TE_PER_NOTCH_VS_SPEED:67,1037,2460,5233,7517,10140,14849,18308,22378
TE_PER_NOTCH_VS_SPEED:68,1026,2473,5221,7343,10140,14662,17809,22028
TE_PER_NOTCH_VS_SPEED:69,862,2647,5058,7343,9965,14499,17646,21678
TE_PER_NOTCH_VS_SPEED:70,699,2822,4895,7343,9790,14336,17483,21329


DYNAMIC_BRAKE_SETUP_CURRENT: 125
MAINTAIN_DYNAMIC_BRAKE_IN_EMERGENCY: YES

TE_PER_DBNOTCH_VS_SPEED:0,0,0,0,0,0,0,0,0
TE_PER_DBNOTCH_VS_SPEED:1,1744,7887,16385,24576,33578,44440,52426,52426
TE_PER_DBNOTCH_VS_SPEED:2,3487,15774,32771,49153,67156,88880,104852,104852
TE_PER_DBNOTCH_VS_SPEED:3,3388,15879,32876,49156,67065,88985,104958,104855
TE_PER_DBNOTCH_VS_SPEED:4,3288,15984,32981,49158,66974,89090,105063,104858
TE_PER_DBNOTCH_VS_SPEED:5,3393,15892,32881,49161,66977,88997,105066,104964
TE_PER_DBNOTCH_VS_SPEED:6,3499,15799,32782,49164,66980,88905,105069,105069
TE_PER_DBNOTCH_VS_SPEED:7,3399,15898,32785,49065,66983,88901,104977,104977
TE_PER_DBNOTCH_VS_SPEED:8,3300,15996,32788,48966,66986,88897,104884,104884
TE_PER_DBNOTCH_VS_SPEED:9,3405,15904,32791,49071,67083,88900,104880,104975
TE_PER_DBNOTCH_VS_SPEED:10,3510,15812,32794,49176,67181,88903,104875,105065
TE_PER_DBNOTCH_VS_SPEED:11,3513,15807,32797,49083,67191,89008,104878,105076
TE_PER_DBNOTCH_VS_SPEED:12,3516,15803,32800,48991,67202,89114,104881,105086
TE_PER_DBNOTCH_VS_SPEED:13,3519,15806,32803,49082,67205,89021,104980,104994
TE_PER_DBNOTCH_VS_SPEED:14,3522,15809,32806,49173,67208,88928,105078,104901
TE_PER_DBNOTCH_VS_SPEED:15,3627,15906,32808,49089,67211,88924,105088,104897
TE_PER_DBNOTCH_VS_SPEED:16,3733,16004,32811,49004,67214,88920,105098,104893
TE_PER_DBNOTCH_VS_SPEED:17,3640,15912,32814,49095,67121,88923,105101,104896
TE_PER_DBNOTCH_VS_SPEED:18,3547,15821,32817,49185,67029,88926,105104,104899
TE_PER_DBNOTCH_VS_SPEED:19,3544,15919,32820,49093,67120,88929,105005,104998
TE_PER_DBNOTCH_VS_SPEED:20,3540,16018,32823,49001,67211,88932,104905,105096
TE_PER_DBNOTCH_VS_SPEED:21,3338,15464,31802,47570,65299,86387,101631,101727
TE_PER_DBNOTCH_VS_SPEED:22,3136,14911,30781,46139,63386,83841,98358,98358
TE_PER_DBNOTCH_VS_SPEED:23,3036,14292,29453,43992,60295,80198,93958,93958
TE_PER_DBNOTCH_VS_SPEED:24,2937,13673,28125,41845,57203,76555,89558,89558
TE_PER_DBNOTCH_VS_SPEED:25,2735,13062,27001,40210,54851,73450,85978,85978
TE_PER_DBNOTCH_VS_SPEED:26,2533,12451,25878,38574,52499,70344,82397,82397
TE_PER_DBNOTCH_VS_SPEED:27,2536,12000,24857,37144,50659,67751,79226,79328
TE_PER_DBNOTCH_VS_SPEED:28,2539,11550,23836,35714,48819,65158,76055,76260
TE_PER_DBNOTCH_VS_SPEED:29,2440,11267,23174,34692,47389,63032,73907,74010
TE_PER_DBNOTCH_VS_SPEED:30,2340,10985,22511,33671,45958,60907,71760,71760
TE_PER_DBNOTCH_VS_SPEED:31,2343,10586,21746,32548,44425,58964,69661,69661
TE_PER_DBNOTCH_VS_SPEED:32,2346,10186,20981,31425,42892,57022,67561,67561
TE_PER_DBNOTCH_VS_SPEED:33,2254,9955,20370,30506,41653,55182,65264,65264
TE_PER_DBNOTCH_VS_SPEED:34,2161,9724,19758,29588,40414,53342,62967,62967
TE_PER_DBNOTCH_VS_SPEED:35,2055,9442,19249,28771,39304,52014,61448,61448
TE_PER_DBNOTCH_VS_SPEED:36,1948,9159,18740,27955,38194,50685,59930,59930
TE_PER_DBNOTCH_VS_SPEED:37,1951,8833,18231,27241,37241,49255,58199,58199
TE_PER_DBNOTCH_VS_SPEED:38,1954,8507,17722,26528,36289,47825,56469,56469
TE_PER_DBNOTCH_VS_SPEED:39,1855,8305,17247,25814,35199,46679,55017,55112
TE_PER_DBNOTCH_VS_SPEED:40,1755,8103,16772,25100,34110,45534,53564,53754
TE_PER_DBNOTCH_VS_SPEED:41,1656,7901,16332,24489,33294,44511,52331,52433
TE_PER_DBNOTCH_VS_SPEED:42,1556,7699,15891,23877,32478,43488,51098,51113
TE_PER_DBNOTCH_VS_SPEED:43,1662,7498,15607,23368,31764,42286,49960,49967
TE_PER_DBNOTCH_VS_SPEED:44,1767,7296,15323,22859,31050,41084,48822,48822
TE_PER_DBNOTCH_VS_SPEED:45,1674,7197,14896,22350,30480,40268,47699,47699
TE_PER_DBNOTCH_VS_SPEED:46,1582,7097,14469,21841,29909,39452,46575,46575
TE_PER_DBNOTCH_VS_SPEED:47,1578,6895,14282,21369,29210,38636,45647,45647
TE_PER_DBNOTCH_VS_SPEED:48,1574,6693,14094,20896,28510,37819,44719,44719
TE_PER_DBNOTCH_VS_SPEED:49,1577,6601,13673,20482,27946,37106,43730,43730
TE_PER_DBNOTCH_VS_SPEED:50,1580,6508,13252,20068,27382,36392,42740,42740
TE_PER_DBNOTCH_VS_SPEED:51,1487,6402,13064,19632,26907,35630,42026,42026
TE_PER_DBNOTCH_VS_SPEED:52,1395,6296,12876,19197,26432,34869,41313,41313
TE_PER_DBNOTCH_VS_SPEED:53,1390,6094,12676,19009,25991,34345,40650,40650
TE_PER_DBNOTCH_VS_SPEED:54,1386,5892,12476,18822,25550,33820,39987,39987
TE_PER_DBNOTCH_VS_SPEED:55,1389,5895,12258,18401,25041,33169,39120,39222
TE_PER_DBNOTCH_VS_SPEED:56,1392,5898,12041,17979,24532,32519,38253,38457
TE_PER_DBNOTCH_VS_SPEED:57,1300,5710,11839,17696,24058,31907,37539,37744
TE_PER_DBNOTCH_VS_SPEED:58,1207,5523,11637,17412,23583,31296,36825,37030
TE_PER_DBNOTCH_VS_SPEED:59,1203,5409,11333,17087,23244,30823,36352,36462
TE_PER_DBNOTCH_VS_SPEED:60,1199,5295,11029,16762,22906,30351,35880,35894
TE_PER_DBNOTCH_VS_SPEED:61,1202,5195,10929,16458,22526,29908,35276,35283
TE_PER_DBNOTCH_VS_SPEED:62,1205,5096,10830,16154,22147,29465,34672,34672
TE_PER_DBNOTCH_VS_SPEED:63,1208,5194,10730,15952,21933,28956,34156,34156
TE_PER_DBNOTCH_VS_SPEED:64,1211,5293,10631,15750,21718,28447,33639,33639
TE_PER_DBNOTCH_VS_SPEED:65,1214,5114,10429,15468,21194,28069,33133,33227
TE_PER_DBNOTCH_VS_SPEED:66,1217,4934,10227,15186,20671,27692,32627,32816
TE_PER_DBNOTCH_VS_SPEED:67,1220,4921,10134,14962,20469,27285,32115,32312
TE_PER_DBNOTCH_VS_SPEED:68,1223,4909,10042,14738,20267,26879,31603,31808
TE_PER_DBNOTCH_VS_SPEED:69,1226,4809,9936,14645,19861,26567,31160,31365
TE_PER_DBNOTCH_VS_SPEED:70,1229,4710,9829,14553,19454,26256,30717,30922


MAX_DB_AMPS:  850
MAX_TE_AMPS: 1450


FUEL_LITER_PER_MINUTE_NOTCH_0:       0.196
FUEL_LITER_PER_MINUTE_NOTCH_1:       0.751
FUEL_LITER_PER_MINUTE_NOTCH_2:       1.432
FUEL_LITER_PER_MINUTE_NOTCH_3:       2.984
FUEL_LITER_PER_MINUTE_NOTCH_4:       4.057
FUEL_LITER_PER_MINUTE_NOTCH_5:       5.451
FUEL_LITER_PER_MINUTE_NOTCH_6:       8.391
FUEL_LITER_PER_MINUTE_NOTCH_7:       10.334
FUEL_LITER_PER_MINUTE_NOTCH_8:       11.810

FUEL_LITER_PER_MINUTE_DBNOTCH_0:     0.196
FUEL_LITER_PER_MINUTE_DBNOTCH_1:     0.259
FUEL_LITER_PER_MINUTE_DBNOTCH_2:     0.448
FUEL_LITER_PER_MINUTE_DBNOTCH_3:     0.637
FUEL_LITER_PER_MINUTE_DBNOTCH_4:     0.871
FUEL_LITER_PER_MINUTE_DBNOTCH_5:     1.173
FUEL_LITER_PER_MINUTE_DBNOTCH_6:     1.470
FUEL_LITER_PER_MINUTE_DBNOTCH_7:     1.470
FUEL_LITER_PER_MINUTE_DBNOTCH_8:     1.470

// ??? I don't know where to get these for AC4400
// I don't think I use them any more anyhow
FUEL_LITER_PER_MINUTE_DB_LOW:       3.72863     // Using notch 4 numbers for both; Check these
FUEL_LITER_PER_MINUTE_DB_HIGH:      3.72863
//
FUEL_TANK_CAP_LITERS:               18549       //
FUEL_ON_BOARD:                      18549       // Full tank, from SD70ACe Operators Manual

MAIN_GENERATOR_VOLTAGE:             600         //

//
// Cab Display
//
CAB_HAS_ANALOG_GAUGES: NO

//
// Air Brake System
// ALL  PRESSURES MUST BE INPUT IN PSIs
AIR_BRAKE_TYPE:                     26L
COMPRESSOR_DRIVE_MODE:              DIRECT      // if direct, needs //COMPRESSOR_LITER_PER_MIN_PER_RPM, else needs MAX_COMPRESSOR_LITER_PER_MIN
//COMPRESSOR_LITER_PER_MIN_PER_RPM: 7.99164     // 0.28222 ft3 at 28.316 846 712 liters / ft3
// Gardner Denver WLA Compressor
COMPRESSOR_CUFT_PER_MIN_AT_MAX_RPM: 268         // Compressor CFM at 950 RPM (Prime Mover RPM), from SD70ACe Operators Manual - REMAINING INFO FROM SD70MAC FILE
MAIN1_RESERVOIR_VOLUME_LITER:       469         // From PI's 26-L book
MAIN2_RESERVOIR_VOLUME_LITER:       469         // From PI's 26-L book
MAIN1_RESERVOIR_INITIAL_PRESSURE:   120         // Could want to start at something else, especially if testing compressor failure
MAIN2_RESERVOIR_INITIAL_PRESSURE:   120         // Could want to start at something else, especially if testing compressor failure
MAIN_RES_SAFETY_HIGH_THRESH:        175         // These safety valve Presssures are all relative pressures
MAIN_RES_SAFETY_LOW_THRESH:         175         //
CompPressSw_HIGH_THRESH:            140         //
CompPressSw_LOW_THRESH:             130         //
//
BRAKE_VALVE_REG_VALVE_INITIAL_VALUE:        90  // Just the initial value. psis
DP_SETOUT_CUTS_OUT_BRAKE_VALVE:             YES
EQUALIZING_RESERVOIR_VOLUME_LITER:      3.605   // 220 CU. IN.
EQUALIZING_RESERVOIR_INITIAL_PRESSURE:      90  // COuld want to start at something else, especially if testing compressor failure
J_RELAY_VALVE_TYPE:             J-1.6-16        // This means % of independant and % of auto control pipe pressures sent to
                                // loco brake cyinders as well as max pressure for ind., auto and emerg. brake app.
                                // Possible types are: J1, J-1.6-16, J-200,J-84M, J64B

DP_SETOUT_APPLIES_INDEPENDENT:          YES
MAX_INDEPENDANT_BRAKE_PRESSURE:         72      // Typical value (sometimes 50) for CN locos

UNEXPECTED_EMERGENCY_FULL_POWER: YES
IMMEDIATE_EQ_RES_DROP_IN_EMERGENCY: YES
EQ_RES_HOLDS_WHEN_CUT_OUT: NO
EQ_RES_ZERO_WHEN_HANDLE_OFF: YES
USE_DYNAMIC_BRAKE_INTERLOCK: YES

26-F_GRADUATED_RELEASE:             NO          // YES usually only for passenger trains
26-F_EMERGENCY_CYLINDER_PRESSURE_LIMIT:  73     // Need to verify this
26-F_SERVICE_CYLINDER_PRESSURE_LIMIT:   60      // Need to verify this ( 32-62psi range)
// Electrical System



//